\relax 
\@writefile{toc}{\contentsline {section}{\numberline {1}Task Formulation}{1}}
\@writefile{toc}{\contentsline {section}{\numberline {2}The Text Similarity}{1}}
\@writefile{toc}{\contentsline {subsection}{\numberline {2.1}Parametrizing the document}{1}}
\@writefile{toc}{\contentsline {subsubsection}{\numberline {2.1.1}Defining the Vocabulary}{1}}
\@writefile{toc}{\contentsline {subsubsection}{\numberline {2.1.2}Term Frequency}{2}}
\@writefile{toc}{\contentsline {subsubsection}{\numberline {2.1.3}Term Frequency-Inverse Document Frequency}{2}}
\@writefile{toc}{\contentsline {subsection}{\numberline {2.2}Cosine Similarity Score}{3}}
\@writefile{toc}{\contentsline {subsection}{\numberline {2.3}Explicit Semantic Analysis}{4}}
\@writefile{toc}{\contentsline {subsubsection}{\numberline {2.3.1}Knowledge Representation}{4}}
\@writefile{toc}{\contentsline {subsubsection}{\numberline {2.3.2}Interpretation Vector}{4}}
\@writefile{toc}{\contentsline {section}{\numberline {3}The Implementation}{5}}
\@writefile{toc}{\contentsline {section}{\numberline {4}The Experiments}{6}}
